%YAML 1.1
%TAG !u! tag:unity3d.com,2011:
--- !u!1 &193268105887608725
GameObject:
  m_ObjectHideFlags: 0
  m_CorrespondingSourceObject: {fileID: 0}
  m_PrefabInstance: {fileID: 0}
  m_PrefabAsset: {fileID: 0}
  serializedVersion: 6
  m_Component:
  - component: {fileID: 6347180330041136230}
  - component: {fileID: 6880063722594052773}
  m_Layer: 0
  m_Name: BoomCloudSceneLoader
  m_TagString: Untagged
  m_Icon: {fileID: 0}
  m_NavMeshLayer: 0
  m_StaticEditorFlags: 0
  m_IsActive: 1
--- !u!4 &6347180330041136230
Transform:
  m_ObjectHideFlags: 0
  m_CorrespondingSourceObject: {fileID: 0}
  m_PrefabInstance: {fileID: 0}
  m_PrefabAsset: {fileID: 0}
  m_GameObject: {fileID: 193268105887608725}
  m_LocalRotation: {x: -0, y: -0, z: -0, w: 1}
  m_LocalPosition: {x: 0, y: 0, z: 0}
  m_LocalScale: {x: 1, y: 1, z: 1}
  m_Children: []
  m_Father: {fileID: 0}
  m_RootOrder: 0
  m_LocalEulerAnglesHint: {x: 0, y: 0, z: 0}
--- !u!114 &6880063722594052773
MonoBehaviour:
  m_ObjectHideFlags: 0
  m_CorrespondingSourceObject: {fileID: 0}
  m_PrefabInstance: {fileID: 0}
  m_PrefabAsset: {fileID: 0}
  m_GameObject: {fileID: 193268105887608725}
  m_Enabled: 1
  m_EditorHideFlags: 0
  m_Script: {fileID: 11500000, guid: cb02af5eefdb50943975a811a79abe60, type: 3}
  m_Name: 
  m_EditorClassIdentifier: 
  mainAudio: {fileID: 0}
  cueToStart: -1
  cuesCamerasList:
  - cueName: start
    virtualCamerasCue:
    - {fileID: 0}
    - {fileID: 0}
    - {fileID: 0}
    layerToDisplay: []
    layerToHide: []
    objectCueNameToSynchronize: 
  - cueName: start
    virtualCamerasCue:
    - {fileID: 0}
    - {fileID: 0}
    - {fileID: 0}
    layerToDisplay: []
    layerToHide: []
    objectCueNameToSynchronize: 
  - cueName: start
    virtualCamerasCue:
    - {fileID: 0}
    - {fileID: 0}
    - {fileID: 0}
    layerToDisplay: []
    layerToHide: []
    objectCueNameToSynchronize: 
  - cueName: start
    virtualCamerasCue:
    - {fileID: 0}
    - {fileID: 0}
    - {fileID: 0}
    layerToDisplay: []
    layerToHide: []
    objectCueNameToSynchronize: 
  - cueName: start
    virtualCamerasCue:
    - {fileID: 0}
    - {fileID: 0}
    - {fileID: 0}
    layerToDisplay: []
    layerToHide: []
    objectCueNameToSynchronize: 
  - cueName: start
    virtualCamerasCue:
    - {fileID: 0}
    - {fileID: 0}
    - {fileID: 0}
    layerToDisplay: []
    layerToHide: []
    objectCueNameToSynchronize: 
  - cueName: start
    virtualCamerasCue:
    - {fileID: 0}
    - {fileID: 0}
    - {fileID: 0}
    layerToDisplay: []
    layerToHide: []
    objectCueNameToSynchronize: 
  - cueName: start
    virtualCamerasCue:
    - {fileID: 0}
    - {fileID: 0}
    - {fileID: 0}
    layerToDisplay: []
    layerToHide: []
    objectCueNameToSynchronize: 
  - cueName: start
    virtualCamerasCue:
    - {fileID: 0}
    - {fileID: 0}
    - {fileID: 0}
    layerToDisplay: []
    layerToHide: []
    objectCueNameToSynchronize: 
  - cueName: start
    virtualCamerasCue:
    - {fileID: 0}
    - {fileID: 0}
    - {fileID: 0}
    layerToDisplay: []
    layerToHide: []
    objectCueNameToSynchronize: 
  - cueName: start
    virtualCamerasCue:
    - {fileID: 0}
    - {fileID: 0}
    - {fileID: 0}
    layerToDisplay: []
    layerToHide: []
    objectCueNameToSynchronize: 
  - cueName: start
    virtualCamerasCue:
    - {fileID: 0}
    - {fileID: 0}
    - {fileID: 0}
    layerToDisplay: []
    layerToHide: []
    objectCueNameToSynchronize: 
  - cueName: start
    virtualCamerasCue:
    - {fileID: 0}
    - {fileID: 0}
    - {fileID: 0}
    layerToDisplay: []
    layerToHide: []
    objectCueNameToSynchronize: 
  - cueName: start
    virtualCamerasCue:
    - {fileID: 0}
    - {fileID: 0}
    - {fileID: 0}
    layerToDisplay: []
    layerToHide: []
    objectCueNameToSynchronize: 
  - cueName: start
    virtualCamerasCue:
    - {fileID: 0}
    - {fileID: 0}
    - {fileID: 0}
    layerToDisplay: []
    layerToHide: []
    objectCueNameToSynchronize: 
  - cueName: start
    virtualCamerasCue:
    - {fileID: 0}
    - {fileID: 0}
    - {fileID: 0}
    layerToDisplay: []
    layerToHide: []
    objectCueNameToSynchronize: 
  - cueName: start
    virtualCamerasCue:
    - {fileID: 0}
    - {fileID: 0}
    - {fileID: 0}
    layerToDisplay: []
    layerToHide: []
    objectCueNameToSynchronize: 
  - cueName: start
    virtualCamerasCue:
    - {fileID: 0}
    - {fileID: 0}
    - {fileID: 0}
    layerToDisplay: []
    layerToHide: []
    objectCueNameToSynchronize: 
  - cueName: start
    virtualCamerasCue:
    - {fileID: 0}
    - {fileID: 0}
    - {fileID: 0}
    layerToDisplay: []
    layerToHide: []
    objectCueNameToSynchronize: 
  - cueName: start
    virtualCamerasCue:
    - {fileID: 0}
    - {fileID: 0}
    - {fileID: 0}
    layerToDisplay: []
    layerToHide: []
    objectCueNameToSynchronize: 
  - cueName: start
    virtualCamerasCue:
    - {fileID: 0}
    - {fileID: 0}
    - {fileID: 0}
    layerToDisplay: []
    layerToHide: []
    objectCueNameToSynchronize: 
  - cueName: start
    virtualCamerasCue:
    - {fileID: 0}
    - {fileID: 0}
    - {fileID: 0}
    layerToDisplay: []
    layerToHide: []
    objectCueNameToSynchronize: 
  - cueName: start
    virtualCamerasCue:
    - {fileID: 0}
    - {fileID: 0}
    - {fileID: 0}
    layerToDisplay: []
    layerToHide: []
    objectCueNameToSynchronize: 
  - cueName: start
    virtualCamerasCue:
    - {fileID: 0}
    - {fileID: 0}
    - {fileID: 0}
    layerToDisplay: []
    layerToHide: []
    objectCueNameToSynchronize: 
  - cueName: start
    virtualCamerasCue:
    - {fileID: 0}
    - {fileID: 0}
    - {fileID: 0}
    layerToDisplay: []
    layerToHide: []
    objectCueNameToSynchronize: 
  PropsList: []
  actionCuesList: []
  audioCuesList: []
