%YAML 1.1
%TAG !u! tag:unity3d.com,2011:
--- !u!1 &8714688050853493116
GameObject:
  m_ObjectHideFlags: 0
  m_CorrespondingSourceObject: {fileID: 0}
  m_PrefabInstance: {fileID: 0}
  m_PrefabAsset: {fileID: 0}
  serializedVersion: 6
  m_Component:
  - component: {fileID: 8714688050853493118}
  - component: {fileID: 8714688050853493117}
  - component: {fileID: 8714688050853493119}
  - component: {fileID: 8714688050853493104}
  m_Layer: 0
  m_Name: AvatarSynchronizer
  m_TagString: Untagged
  m_Icon: {fileID: 0}
  m_NavMeshLayer: 0
  m_StaticEditorFlags: 0
  m_IsActive: 1
--- !u!4 &8714688050853493118
Transform:
  m_ObjectHideFlags: 0
  m_CorrespondingSourceObject: {fileID: 0}
  m_PrefabInstance: {fileID: 0}
  m_PrefabAsset: {fileID: 0}
  m_GameObject: {fileID: 8714688050853493116}
  m_LocalRotation: {x: 0, y: 0, z: 0, w: 1}
  m_LocalPosition: {x: 0, y: 0, z: 0}
  m_LocalScale: {x: 1, y: 1, z: 1}
  m_Children: []
  m_Father: {fileID: 0}
  m_RootOrder: 0
  m_LocalEulerAnglesHint: {x: 0, y: 0, z: 0}
--- !u!114 &8714688050853493117
MonoBehaviour:
  m_ObjectHideFlags: 0
  m_CorrespondingSourceObject: {fileID: 0}
  m_PrefabInstance: {fileID: 0}
  m_PrefabAsset: {fileID: 0}
  m_GameObject: {fileID: 8714688050853493116}
  m_Enabled: 1
  m_EditorHideFlags: 0
  m_Script: {fileID: 11500000, guid: c01962d23d5e7844cbb9cbba84eebce7, type: 3}
  m_Name: 
  m_EditorClassIdentifier: 
  channelId: 1
  isSender: 0
  compressData: 1
  serverFeedback: 1
  sendPacked: 0
  logAnalytics: 0
  avatars: []
  props: []
  buttonStartPosition: {x: 32, y: 160}
  buttonSize: {x: 80, y: 24}
  buttonOffsetPosition: {x: 0, y: 48}
  refreshRate: 60
--- !u!114 &8714688050853493119
MonoBehaviour:
  m_ObjectHideFlags: 0
  m_CorrespondingSourceObject: {fileID: 0}
  m_PrefabInstance: {fileID: 0}
  m_PrefabAsset: {fileID: 0}
  m_GameObject: {fileID: 8714688050853493116}
  m_Enabled: 1
  m_EditorHideFlags: 0
  m_Script: {fileID: 11500000, guid: e6b03af5049dbb247b4a7d4e9b9da0a1, type: 3}
  m_Name: 
  m_EditorClassIdentifier: 
  buttonStartPosition: {x: 160, y: 160}
  buttonSize: {x: 80, y: 24}
  buttonOffsetPosition: {x: 0, y: 48}
  textFieldOffsetPosition: {x: 48, y: 0}
--- !u!114 &8714688050853493104
MonoBehaviour:
  m_ObjectHideFlags: 0
  m_CorrespondingSourceObject: {fileID: 0}
  m_PrefabInstance: {fileID: 0}
  m_PrefabAsset: {fileID: 0}
  m_GameObject: {fileID: 8714688050853493116}
  m_Enabled: 1
  m_EditorHideFlags: 0
  m_Script: {fileID: 11500000, guid: a31e9a8345ed3484c97860b0a0447d99, type: 3}
  m_Name: 
  m_EditorClassIdentifier: 
  fpsSlider: {fileID: 0}
  fpsCounter: {fileID: 0}
  locked: {fileID: 0}
